<?xml version="1.0" encoding="utf-8"?>
<!-- Generator: Adobe Illustrator 22.1.0, SVG Export Plug-In . SVG Version: 6.00 Build 0)  -->
<svg version="1.1" id="Capa_1" xmlns="http://www.w3.org/2000/svg" xmlns:xlink="http://www.w3.org/1999/xlink" x="0px" y="0px"
	 viewBox="0 0 136 136" style="enable-background:new 0 0 136 136;" xml:space="preserve">
<style type="text/css">
	.st0{fill:#FFFFFF;}
	.st1{fill:#368DAD;}
</style>
<circle class="st0" cx="67.8" cy="66.8" r="63.8"/>
<g>
	<g>
		<g>
			<path class="st1" d="M69.5,24.3C51.6,24.3,37,38.8,37,56.8C37,79,66.1,111.6,67.3,113c1.2,1.3,3.2,1.3,4.4,0
				c1.2-1.4,30.3-34,30.3-56.3C102,38.8,87.4,24.3,69.5,24.3z M68.5,74.3C57.7,74.3,49,65.5,49,54.8s8.7-19.5,19.5-19.5
				S88,44,88,54.8S79.3,74.3,68.5,74.3z"/>
		</g>
	</g>
	<g>
		<path class="st1" d="M68.5,1.5c-37,0-67,30-67,67s30,67,67,67s67-30,67-67S105.5,1.5,68.5,1.5z M68.5,128C35.6,128,9,101.4,9,68.5
			S35.6,9,68.5,9S128,35.6,128,68.5S101.4,128,68.5,128z"/>
	</g>
</g>
</svg>
