<?xml version="1.0" encoding="utf-8"?>
<!-- Generator: Adobe Illustrator 22.1.0, SVG Export Plug-In . SVG Version: 6.00 Build 0)  -->
<svg version="1.1" id="Capa_1" xmlns="http://www.w3.org/2000/svg" xmlns:xlink="http://www.w3.org/1999/xlink" x="0px" y="0px"
	 viewBox="0 0 32.3 32.2" style="enable-background:new 0 0 32.3 32.2;" xml:space="preserve">
<style type="text/css">
	.st0{fill:url(#SVGID_1_);}
	.st1{fill:url(#SVGID_2_);}
	.st2{fill:#BE2C79;}
	.st3{fill:none;stroke:url(#SVGID_3_);stroke-width:2;stroke-miterlimit:10;}
</style>
<title>inst-2</title>
<linearGradient id="SVGID_1_" gradientUnits="userSpaceOnUse" x1="15.8232" y1="8.81" x2="15.9832" y2="27.13" gradientTransform="matrix(1 0 0 -1 0 33.72)">
	<stop  offset="0" style="stop-color:#D0762A"/>
	<stop  offset="0.28" style="stop-color:#BA453F"/>
	<stop  offset="1" style="stop-color:#BE2C79"/>
</linearGradient>
<path class="st0" d="M19,8h-6.1c-2.8,0-5.1,2.3-5.1,5.1v0v6.1c0,2.8,2.3,5.1,5.1,5.1c0,0,0,0,0,0H19c2.8,0,5.1-2.3,5.1-5.1
	c0,0,0,0,0,0v-6.1C24.1,10.2,21.8,8,19,8L19,8z M22.5,19.2c0,2-1.6,3.6-3.6,3.6h-6.1c-2,0-3.6-1.6-3.6-3.6v-6.1c0-2,1.6-3.6,3.6-3.6
	H19c2,0,3.6,1.6,3.6,3.6c0,0,0,0,0,0V19.2z"/>
<linearGradient id="SVGID_2_" gradientUnits="userSpaceOnUse" x1="15.9245" y1="13.14" x2="15.8745" y2="22.25" gradientTransform="matrix(1 0 0 -1 0 33.72)">
	<stop  offset="0" style="stop-color:#BA453F"/>
	<stop  offset="1" style="stop-color:#BE2C79"/>
</linearGradient>
<path class="st1" d="M15.9,12c-2.3,0-4.1,1.8-4.1,4.1s1.8,4.1,4.1,4.1s4.1-1.8,4.1-4.1S18.2,12,15.9,12L15.9,12z M15.9,18.7
	c-1.4,0-2.6-1.1-2.6-2.5c0-1.4,1.1-2.6,2.5-2.6c1.4,0,2.6,1.1,2.6,2.5c0,0,0,0,0,0C18.4,17.5,17.3,18.7,15.9,18.7z"/>
<circle class="st2" cx="20.3" cy="11.7" r="0.9"/>
<linearGradient id="SVGID_3_" gradientUnits="userSpaceOnUse" x1="12.4413" y1="1.9306" x2="19.8987" y2="33.2894" gradientTransform="matrix(1 0 0 -1 0 33.72)">
	<stop  offset="0" style="stop-color:#DA922C"/>
	<stop  offset="2.000000e-02" style="stop-color:#D68331"/>
	<stop  offset="6.000000e-02" style="stop-color:#CE6A39"/>
	<stop  offset="0.1" style="stop-color:#C9573E"/>
	<stop  offset="0.14" style="stop-color:#C64D42"/>
	<stop  offset="0.18" style="stop-color:#C54943"/>
	<stop  offset="0.52" style="stop-color:#BF2F76"/>
	<stop  offset="0.79" style="stop-color:#813A8A"/>
	<stop  offset="0.95" style="stop-color:#2C3689;stop-opacity:0.98"/>
</linearGradient>
<ellipse class="st3" cx="16.2" cy="16.1" rx="15.2" ry="15.1"/>
</svg>
